Projeto3/Projeto 3/simulation/qsim/project3.msim.vcd
$comment
	File created using the following command:
		vcd file project3.msim.vcd -direction
$end
$date
	Fri Jun 07 16:25:22 2019
$end
$version
	ModelSim Version 10.1d
$end
$timescale
	1ps
$end
$scope module project3_vlg_vec_tst $end
$var reg 1 ! c $end
$var reg 1 " clk $end
$var reg 5 # numIn [4:0] $end
$var reg 3 $ op [2:0] $end
$var reg 1 % rst $end
$var wire 1 & Disp0 [6] $end
$var wire 1 ' Disp0 [5] $end
$var wire 1 ( Disp0 [4] $end
$var wire 1 ) Disp0 [3] $end
$var wire 1 * Disp0 [2] $end
$var wire 1 + Disp0 [1] $end
$var wire 1 , Disp0 [0] $end
$var wire 1 - Disp1 [6] $end
$var wire 1 . Disp1 [5] $end
$var wire 1 / Disp1 [4] $end
$var wire 1 0 Disp1 [3] $end
$var wire 1 1 Disp1 [2] $end
$var wire 1 2 Disp1 [1] $end
$var wire 1 3 Disp1 [0] $end
$var wire 1 4 Disp2 [6] $end
$var wire 1 5 Disp2 [5] $end
$var wire 1 6 Disp2 [4] $end
$var wire 1 7 Disp2 [3] $end
$var wire 1 8 Disp2 [2] $end
$var wire 1 9 Disp2 [1] $end
$var wire 1 : Disp2 [0] $end
$var wire 1 ; led [3] $end
$var wire 1 < led [2] $end
$var wire 1 = led [1] $end
$var wire 1 > led [0] $end
$var wire 1 ? stateCode [3] $end
$var wire 1 @ stateCode [2] $end
$var wire 1 A stateCode [1] $end
$var wire 1 B stateCode [0] $end
$var wire 1 C sampler $end
$scope module i1 $end
$var wire 1 D gnd $end
$var wire 1 E vcc $end
$var wire 1 F unknown $end
$var tri1 1 G devclrn $end
$var tri1 1 H devpor $end
$var tri1 1 I devoe $end
$var wire 1 J conv|Mod0|auto_generated|divider|divider|add_sub_3_result_int[1]~0_combout $end
$var wire 1 K conv|Mod0|auto_generated|divider|divider|add_sub_3_result_int[3]~4_combout $end
$var wire 1 L conv|Div0|auto_generated|divider|divider|add_sub_3_result_int[2]~2_combout $end
$var wire 1 M conv|Div0|auto_generated|divider|divider|add_sub_3_result_int[3]~4_combout $end
$var wire 1 N Add2~4_combout $end
$var wire 1 O Add2~6_combout $end
$var wire 1 P conv|Mod0|auto_generated|divider|divider|StageOut[17]~1_combout $end
$var wire 1 Q conv|Mod0|auto_generated|divider|divider|StageOut[16]~3_combout $end
$var wire 1 R conv|Mod0|auto_generated|divider|divider|StageOut[15]~4_combout $end
$var wire 1 S conv|Mod0|auto_generated|divider|divider|StageOut[18]~7_combout $end
$var wire 1 T conv|Mux12~0_combout $end
$var wire 1 U conv|Div0|auto_generated|divider|divider|StageOut[18]~1_combout $end
$var wire 1 V conv|Div0|auto_generated|divider|divider|StageOut[17]~2_combout $end
$var wire 1 W conv|Div0|auto_generated|divider|divider|StageOut[16]~4_combout $end
$var wire 1 X conv|Div0|auto_generated|divider|divider|StageOut[15]~7_combout $end
$var wire 1 Y Add1~0_combout $end
$var wire 1 Z Selector17~0_combout $end
$var wire 1 [ Selector17~1_combout $end
$var wire 1 \ Add1~1_combout $end
$var wire 1 ] Equal2~1_combout $end
$var wire 1 ^ Equal2~2_combout $end
$var wire 1 _ Selector42~8_combout $end
$var wire 1 ` clk~combout $end
$var wire 1 a clk~clkctrl_outclk $end
$var wire 1 b c~combout $end
$var wire 1 c Mux0~0_combout $end
$var wire 1 d rst~combout $end
$var wire 1 e rst~clkctrl_outclk $end
$var wire 1 f state.s_and~regout $end
$var wire 1 g Mux0~4_combout $end
$var wire 1 h state.s_or~regout $end
$var wire 1 i Mux0~3_combout $end
$var wire 1 j state.s_xor~regout $end
$var wire 1 k Mux0~1_combout $end
$var wire 1 l state.s_xnor~regout $end
$var wire 1 m WideOr0~0_combout $end
$var wire 1 n WideOr14~0_combout $end
$var wire 1 o Selector27~0_combout $end
$var wire 1 p state.insertOp~regout $end
$var wire 1 q Selector31~0_combout $end
$var wire 1 r Selector29~0_combout $end
$var wire 1 s state.subtract~regout $end
$var wire 1 t WideOr3~0_combout $end
$var wire 1 u WideOr3~combout $end
$var wire 1 v stateCode[0]~reg0_regout $end
$var wire 1 w Selector30~0_combout $end
$var wire 1 x state.compare~regout $end
$var wire 1 y WideOr2~0_combout $end
$var wire 1 z WideOr2~combout $end
$var wire 1 { stateCode[1]~reg0_regout $end
$var wire 1 | Selector24~0_combout $end
$var wire 1 } state.init~regout $end
$var wire 1 ~ Selector25~0_combout $end
$var wire 1 !! Selector25~1_combout $end
$var wire 1 "! Selector36~0_combout $end
$var wire 1 #! state.show~regout $end
$var wire 1 $! WideOr1~combout $end
$var wire 1 %! stateCode[2]~reg0_regout $end
$var wire 1 &! WideOr0~combout $end
$var wire 1 '! stateCode[3]~reg0_regout $end
$var wire 1 (! Selector0~0_combout $end
$var wire 1 )! Selector1~0_combout $end
$var wire 1 *! conv|conv1|Mux6~5_combout $end
$var wire 1 +! conv|conv1|Mux6~5clkctrl_outclk $end
$var wire 1 ,! Selector25~2_combout $end
$var wire 1 -! state.insert1~regout $end
$var wire 1 .! Selector5~0_combout $end
$var wire 1 /! Selector7~1_combout $end
$var wire 1 0! Selector26~0_combout $end
$var wire 1 1! state.insert2~regout $end
$var wire 1 2! Selector8~0_combout $end
$var wire 1 3! Selector13~1_combout $end
$var wire 1 4! Selector4~0_combout $end
$var wire 1 5! Selector10~0_combout $end
$var wire 1 6! led~0_combout $end
$var wire 1 7! Selector42~0_combout $end
$var wire 1 8! Selector7~0_combout $end
$var wire 1 9! Selector6~0_combout $end
$var wire 1 :! Selector12~0_combout $end
$var wire 1 ;! Selector42~2_combout $end
$var wire 1 <! Selector13~0_combout $end
$var wire 1 =! Selector42~1_combout $end
$var wire 1 >! Equal2~0_combout $end
$var wire 1 ?! Selector42~3_combout $end
$var wire 1 @! Selector42~9_combout $end
$var wire 1 A! Selector28~0_combout $end
$var wire 1 B! state.add~regout $end
$var wire 1 C! WideOr1~0_combout $end
$var wire 1 D! Selector2~0_combout $end
$var wire 1 E! Selector42~4_combout $end
$var wire 1 F! Selector26~1_combout $end
$var wire 1 G! Add3~0_combout $end
$var wire 1 H! Add2~0_combout $end
$var wire 1 I! Selector42~5_combout $end
$var wire 1 J! Selector42~6_combout $end
$var wire 1 K! Selector42~7_combout $end
$var wire 1 L! Add0~0_combout $end
$var wire 1 M! process_0~0_combout $end
$var wire 1 N! Selector27~1_combout $end
$var wire 1 O! c2num_b~3_combout $end
$var wire 1 P! c2num_b~4_combout $end
$var wire 1 Q! c2num_b~2_combout $end
$var wire 1 R! Add3~1 $end
$var wire 1 S! Add3~3 $end
$var wire 1 T! Add3~5 $end
$var wire 1 U! Add3~8 $end
$var wire 1 V! Add3~10 $end
$var wire 1 W! Add3~11_combout $end
$var wire 1 X! Add2~1 $end
$var wire 1 Y! Add2~3 $end
$var wire 1 Z! Add2~5 $end
$var wire 1 [! Add2~7 $end
$var wire 1 \! Add2~9 $end
$var wire 1 ]! Add2~10_combout $end
$var wire 1 ^! Add3~13_combout $end
$var wire 1 _! result[0]~1_combout $end
$var wire 1 `! result[0]~0_combout $end
$var wire 1 a! WideOr11~0_combout $end
$var wire 1 b! Selector19~0_combout $end
$var wire 1 c! Selector19~1_combout $end
$var wire 1 d! Selector19~2_combout $end
$var wire 1 e! conv|Mux4~0_combout $end
$var wire 1 f! conv|Mux4~0clkctrl_outclk $end
$var wire 1 g! conv|Mux9~0_combout $end
$var wire 1 h! Selector16~0_combout $end
$var wire 1 i! Selector16~1_combout $end
$var wire 1 j! Add3~7_combout $end
$var wire 1 k! Add3~14_combout $end
$var wire 1 l! Add3~4_combout $end
$var wire 1 m! Add3~6_combout $end
$var wire 1 n! Add4~1_cout $end
$var wire 1 o! Add4~3 $end
$var wire 1 p! Add4~5 $end
$var wire 1 q! Add4~6_combout $end
$var wire 1 r! Selector16~2_combout $end
$var wire 1 s! Selector16~3_combout $end
$var wire 1 t! conv|Mod0|auto_generated|divider|divider|add_sub_3_result_int[1]~1 $end
$var wire 1 u! conv|Mod0|auto_generated|divider|divider|add_sub_3_result_int[2]~3 $end
$var wire 1 v! conv|Mod0|auto_generated|divider|divider|add_sub_3_result_int[3]~5 $end
$var wire 1 w! conv|Mod0|auto_generated|divider|divider|add_sub_3_result_int[4]~6_combout $end
$var wire 1 x! conv|Mod0|auto_generated|divider|divider|StageOut[17]~0_combout $end
$var wire 1 y! conv|Mod0|auto_generated|divider|divider|StageOut[16]~2_combout $end
$var wire 1 z! Selector41~0_combout $end
$var wire 1 {! Add2~2_combout $end
$var wire 1 |! Add3~2_combout $end
$var wire 1 }! Selector41~1_combout $end
$var wire 1 ~! Selector41~2_combout $end
$var wire 1 !" Selector18~0_combout $end
$var wire 1 "" Selector18~1_combout $end
$var wire 1 #" Add4~2_combout $end
$var wire 1 $" Selector18~combout $end
$var wire 1 %" conv|Mod0|auto_generated|divider|divider|StageOut[15]~5_combout $end
$var wire 1 &" conv|Mod0|auto_generated|divider|divider|add_sub_4_result_int[1]~1 $end
$var wire 1 '" conv|Mod0|auto_generated|divider|divider|add_sub_4_result_int[2]~3 $end
$var wire 1 (" conv|Mod0|auto_generated|divider|divider|add_sub_4_result_int[3]~4_combout $end
$var wire 1 )" conv|Mod0|auto_generated|divider|divider|add_sub_3_result_int[2]~2_combout $end
$var wire 1 *" conv|Mux13~0_combout $end
$var wire 1 +" conv|Mod0|auto_generated|divider|divider|StageOut[18]~6_combout $end
$var wire 1 ," conv|Mod0|auto_generated|divider|divider|add_sub_4_result_int[3]~5 $end
$var wire 1 -" conv|Mod0|auto_generated|divider|divider|add_sub_4_result_int[4]~7_cout $end
$var wire 1 ." conv|Mod0|auto_generated|divider|divider|add_sub_4_result_int[5]~8_combout $end
$var wire 1 /" conv|Mux13~1_combout $end
$var wire 1 0" conv|conv1|Mux6~3_combout $end
$var wire 1 1" conv|Mod0|auto_generated|divider|divider|add_sub_4_result_int[2]~2_combout $end
$var wire 1 2" conv|Mux12~1_combout $end
$var wire 1 3" conv|Mux12~2_combout $end
$var wire 1 4" conv|conv0|Mux6~8_combout $end
$var wire 1 5" conv|conv0|Mux6~9_combout $end
$var wire 1 6" conv|conv0|Mux5~3_combout $end
$var wire 1 7" conv|conv0|Mux5~4_combout $end
$var wire 1 8" conv|conv0|Equal0~0_combout $end
$var wire 1 9" conv|conv0|Mux5~2_combout $end
$var wire 1 :" conv|conv0|codeDisp~4_combout $end
$var wire 1 ;" conv|Mod0|auto_generated|divider|divider|add_sub_4_result_int[1]~0_combout $end
$var wire 1 <" conv|Mux11~2_combout $end
$var wire 1 =" conv|Mux11~3_combout $end
$var wire 1 >" conv|conv0|Mux4~0_combout $end
$var wire 1 ?" conv|conv0|Mux4~1_combout $end
$var wire 1 @" conv|conv0|Mux3~7_combout $end
$var wire 1 A" conv|conv0|Mux3~8_combout $end
$var wire 1 B" conv|conv0|Mux1~3_combout $end
$var wire 1 C" conv|conv0|Mux1~9_combout $end
$var wire 1 D" conv|conv0|Mux0~3_combout $end
$var wire 1 E" conv|conv0|Mux0~9_combout $end
$var wire 1 F" Add4~4_combout $end
$var wire 1 G" Selector17~combout $end
$var wire 1 H" Add3~9_combout $end
$var wire 1 I" Add2~8_combout $end
$var wire 1 J" Add3~15_combout $end
$var wire 1 K" Add4~7 $end
$var wire 1 L" Add4~8_combout $end
$var wire 1 M" Selector15~0_combout $end
$var wire 1 N" Selector15~1_combout $end
$var wire 1 O" Selector15~2_combout $end
$var wire 1 P" Selector14~0_combout $end
$var wire 1 Q" Selector14~1_combout $end
$var wire 1 R" conv|Mux15~0_combout $end
$var wire 1 S" conv|Mux16~2_combout $end
$var wire 1 T" conv|Mux16~3_combout $end
$var wire 1 U" conv|Mux15~1_combout $end
$var wire 1 V" conv|Mux15~2_combout $end
$var wire 1 W" conv|Mux15~2clkctrl_outclk $end
$var wire 1 X" conv|Div0|auto_generated|divider|divider|add_sub_3_result_int[1]~1 $end
$var wire 1 Y" conv|Div0|auto_generated|divider|divider|add_sub_3_result_int[2]~3 $end
$var wire 1 Z" conv|Div0|auto_generated|divider|divider|add_sub_3_result_int[3]~5 $end
$var wire 1 [" conv|Div0|auto_generated|divider|divider|add_sub_3_result_int[4]~6_combout $end
$var wire 1 \" conv|Div0|auto_generated|divider|divider|StageOut[18]~0_combout $end
$var wire 1 ]" conv|Div0|auto_generated|divider|divider|StageOut[17]~3_combout $end
$var wire 1 ^" conv|Div0|auto_generated|divider|divider|add_sub_3_result_int[1]~0_combout $end
$var wire 1 _" conv|Div0|auto_generated|divider|divider|StageOut[16]~5_combout $end
$var wire 1 `" conv|Div0|auto_generated|divider|divider|StageOut[15]~6_combout $end
$var wire 1 a" conv|Div0|auto_generated|divider|divider|add_sub_4_result_int[1]~1_cout $end
$var wire 1 b" conv|Div0|auto_generated|divider|divider|add_sub_4_result_int[2]~3_cout $end
$var wire 1 c" conv|Div0|auto_generated|divider|divider|add_sub_4_result_int[3]~5_cout $end
$var wire 1 d" conv|Div0|auto_generated|divider|divider|add_sub_4_result_int[4]~7_cout $end
$var wire 1 e" conv|Div0|auto_generated|divider|divider|add_sub_4_result_int[5]~8_combout $end
$var wire 1 f" conv|Mux14~0_combout $end
$var wire 1 g" conv|Mux14~1_combout $end
$var wire 1 h" conv|conv1|codeDisp~0_combout $end
$var wire 1 i" conv|Mux17~0_combout $end
$var wire 1 j" conv|conv1|Mux6~2_combout $end
$var wire 1 k" conv|conv1|Mux6~6_combout $end
$var wire 1 l" conv|conv1|Mux6~4_combout $end
$var wire 1 m" conv|conv1|Mux5~0_combout $end
$var wire 1 n" conv|conv1|Mux5~1_combout $end
$var wire 1 o" conv|conv1|Mux4~0_combout $end
$var wire 1 p" conv|conv1|codeDisp~1_combout $end
$var wire 1 q" conv|conv1|Mux3~0_combout $end
$var wire 1 r" conv|conv1|Mux2~0_combout $end
$var wire 1 s" conv|conv1|Mux2~1_combout $end
$var wire 1 t" conv|conv1|Mux1~0_combout $end
$var wire 1 u" conv|conv1|Mux1~1_combout $end
$var wire 1 v" conv|conv1|Mux0~0_combout $end
$var wire 1 w" conv|signalIn~combout $end
$var wire 1 x" conv|conv2|Mux6~1_combout $end
$var wire 1 y" conv|conv2|Mux6~1clkctrl_outclk $end
$var wire 1 z" conv|conv2|Mux6~0_combout $end
$var wire 1 {" conv|conv2|Mux6~2_combout $end
$var wire 1 |" conv|conv2|codeDisp~0_combout $end
$var wire 1 }" conv|conv2|Mux5~0_combout $end
$var wire 1 ~" conv|conv2|Mux4~0_combout $end
$var wire 1 !# conv|conv2|Mux3~0_combout $end
$var wire 1 "# conv|conv2|Mux2~0_combout $end
$var wire 1 ## conv|conv2|Mux0~0_combout $end
$var wire 1 $# Selector23~1_combout $end
$var wire 1 %# Selector23~0_combout $end
$var wire 1 &# Selector23~2_combout $end
$var wire 1 '# WideOr12~0_combout $end
$var wire 1 (# led[0]~reg0_regout $end
$var wire 1 )# Selector22~1_combout $end
$var wire 1 *# Selector22~2_combout $end
$var wire 1 +# Selector22~0_combout $end
$var wire 1 ,# Selector22~3_combout $end
$var wire 1 -# led[1]~reg0_regout $end
$var wire 1 .# Selector11~0_combout $end
$var wire 1 /# Selector21~1_combout $end
$var wire 1 0# Selector21~2_combout $end
$var wire 1 1# Selector21~0_combout $end
$var wire 1 2# Selector21~3_combout $end
$var wire 1 3# led[2]~reg0_regout $end
$var wire 1 4# Mux0~2_combout $end
$var wire 1 5# state.s_not~regout $end
$var wire 1 6# Selector20~0_combout $end
$var wire 1 7# Selector20~1_combout $end
$var wire 1 8# Selector20~2_combout $end
$var wire 1 9# led[3]~reg0_regout $end
$var wire 1 :# conv|absNum [4] $end
$var wire 1 ;# conv|absNum [3] $end
$var wire 1 <# conv|absNum [2] $end
$var wire 1 =# conv|absNum [1] $end
$var wire 1 ># conv|absNum [0] $end
$var wire 1 ?# conv|n0 [3] $end
$var wire 1 @# conv|n0 [2] $end
$var wire 1 A# conv|n0 [1] $end
$var wire 1 B# conv|n0 [0] $end
$var wire 1 C# conv|n1 [3] $end
$var wire 1 D# conv|n1 [2] $end
$var wire 1 E# conv|n1 [1] $end
$var wire 1 F# conv|n1 [0] $end
$var wire 1 G# op~combout [2] $end
$var wire 1 H# op~combout [1] $end
$var wire 1 I# op~combout [0] $end
$var wire 1 J# numIn~combout [4] $end
$var wire 1 K# numIn~combout [3] $end
$var wire 1 L# numIn~combout [2] $end
$var wire 1 M# numIn~combout [1] $end
$var wire 1 N# numIn~combout [0] $end
$var wire 1 O# conv|n2 [3] $end
$var wire 1 P# conv|n2 [2] $end
$var wire 1 Q# conv|n2 [1] $end
$var wire 1 R# conv|n2 [0] $end
$var wire 1 S# temp [5] $end
$var wire 1 T# temp [4] $end
$var wire 1 U# temp [3] $end
$var wire 1 V# temp [2] $end
$var wire 1 W# temp [1] $end
$var wire 1 X# temp [0] $end
$var wire 1 Y# result [5] $end
$var wire 1 Z# result [4] $end
$var wire 1 [# result [3] $end
$var wire 1 \# result [2] $end
$var wire 1 ]# result [1] $end
$var wire 1 ^# result [0] $end
$var wire 1 _# num_b [5] $end
$var wire 1 `# num_b [4] $end
$var wire 1 a# num_b [3] $end
$var wire 1 b# num_b [2] $end
$var wire 1 c# num_b [1] $end
$var wire 1 d# num_b [0] $end
$var wire 1 e# num_a [5] $end
$var wire 1 f# num_a [4] $end
$var wire 1 g# num_a [3] $end
$var wire 1 h# num_a [2] $end
$var wire 1 i# num_a [1] $end
$var wire 1 j# num_a [0] $end
$var wire 1 k# modus [1] $end
$var wire 1 l# modus [0] $end
$var wire 1 m# c2num_b [5] $end
$var wire 1 n# c2num_b [4] $end
$var wire 1 o# c2num_b [3] $end
$var wire 1 p# c2num_b [2] $end
$var wire 1 q# c2num_b [1] $end
$var wire 1 r# c2num_b [0] $end
$var wire 1 s# c2num_a [5] $end
$var wire 1 t# c2num_a [4] $end
$var wire 1 u# c2num_a [3] $end
$var wire 1 v# c2num_a [2] $end
$var wire 1 w# c2num_a [1] $end
$var wire 1 x# c2num_a [0] $end
$upscope $end
$upscope $end
$enddefinitions $end
#0
$dumpvars
0!
0"
b0 #
b0 $
0%
1,
1+
1*
1)
1(
1'
1&
13
12
11
10
1/
1.
1-
1:
19
18
17
16
15
14
0>
0=
0<
0;
0B
0A
0@
0?
xC
0D
1E
xF
1G
1H
1I
xJ
xK
xL
xM
0N
0O
xP
xQ
xR
xS
xT
xU
xV
xW
xX
0Y
0Z
0[
0\
1]
1^
1_
0`
0a
0b
0c
0d
0e
0f
0g
0h
0i
0j
0k
0l
1m
1n
0o
0p
0q
0r
0s
0t
0u
0v
0w
0x
0y
0z
0{
1|
0}
0~
1!!
0"!
0#!
0$!
0%!
0&!
0'!
0(!
0)!
0*!
0+!
1,!
0-!
0.!
1/!
00!
01!
02!
13!
04!
05!
06!
17!
08!
09!
0:!
1;!
0<!
1=!
1>!
1?!
0@!
0A!
0B!
0C!
0D!
0E!
0F!
0G!
0H!
0I!
0J!
0K!
1L!
0M!
0N!
0O!
0P!
0Q!
1R!
0S!
1T!
0U!
1V!
0W!
0X!
1Y!
0Z!
1[!
0\!
0]!
0^!
0_!
1`!
1a!
0b!
0c!
0d!
0e!
0f!
xg!
0h!
0i!
0j!
0k!
0l!
0m!
1n!
0o!
1p!
0q!
0r!
0s!
xt!
xu!
xv!
xw!
xx!
xy!
0z!
0{!
0|!
0}!
0~!
0!"
0""
0#"
0$"
x%"
x&"
x'"
x("
x)"
x*"
x+"
x,"
x-"
x."
x/"
00"
x1"
x2"
x3"
x4"
15"
x6"
x7"
x8"
19"
x:"
x;"
x<"
x="
1>"
1?"
1@"
1A"
xB"
1C"
xD"
1E"
0F"
0G"
0H"
0I"
0J"
0K"
0L"
0M"
0N"
0O"
0P"
0Q"
1R"
0S"
xT"
0U"
0V"
0W"
xX"
xY"
xZ"
x["
x\"
x]"
x^"
x_"
x`"
xa"
xb"
xc"
xd"
xe"
0f"
xg"
xh"
0i"
0j"
0k"
1l"
xm"
1n"
1o"
xp"
1q"
xr"
1s"
0t"
1u"
1v"
xw"
0x"
0y"
0z"
1{"
x|"
1}"
1~"
1!#
1"#
1##
0$#
0%#
0&#
1'#
0(#
0)#
0*#
0+#
0,#
0-#
0.#
0/#
00#
01#
02#
03#
04#
05#
06#
07#
08#
09#
x>#
x=#
x<#
x;#
x:#
xB#
xA#
x@#
x?#
xF#
xE#
xD#
zC#
0I#
0H#
0G#
0N#
0M#
0L#
0K#
0J#
xR#
xQ#
zP#
zO#
0X#
0W#
0V#
0U#
0T#
0S#
0^#
0]#
0\#
0[#
0Z#
0Y#
0d#
0c#
0b#
0a#
z`#
0_#
0j#
0i#
0h#
0g#
zf#
0e#
0l#
0k#
0r#
0q#
0p#
0o#
0n#
zm#
0x#
0w#
0v#
0u#
0t#
zs#
$end
#5000
1"
1`
1a
0C
1-!
1}
0a!
0/!
0,!
1t
0'#
03!
1)!
0!!
1u
1,!
#10000
b10000 #
b10100 #
b10101 #
0"
1N#
1L#
1J#
0`
0a
1C
1b!
0L!
18!
1O!
1M!
1.!
1Z
1P"
1D!
1c!
1Q!
1[
1Q"
1d!
1G"
#15000
1"
1`
1a
0C
1Y#
1\#
1^#
1l#
1v
0R"
1f"
xx"
0v"
0q"
xo"
xn"
xl"
xj"
1V"
xE"
0@"
x>"
x9"
x5"
1e!
1*!
1+!
1f!
1W"
xy"
1B
x##
x"#
x}"
x{"
xA"
x?"
xz"
1w"
0=#
1<#
0:#
0;#
1>#
0D#
0-
00
x1
x2
x3
x&
x+
x,
1x"
0`"
0%"
0X
0R
1X"
0^"
1t!
0J
0\"
0+"
0Z"
0v!
0x!
0V
1g!
0r"
0o"
0m"
1y"
x4
x6
x9
x:
x)
x*
0a"
0&"
1;"
0Y"
0L
0_"
0u!
0)"
0Q
1["
1w!
1B#
0Q#
1R#
01
1M
0]"
1K
0*"
0P
1T"
1W
0U
1y!
1T
0S
1B"
08"
15"
0##
0"#
1|"
1z"
0c"
0,"
0E#
0b"
0'"
01"
0}"
1{"
1,
04
06
1d"
1-"
0n"
0h"
1("
02"
09
1:
1e"
1."
02
0g"
0<"
13"
0/"
0F#
0="
1@#
0?#
0p"
0l"
0j"
0A#
1D"
0A"
1>"
0:"
06"
04"
0E"
07"
1?"
03
0)
0&
09"
1*
0+
#20000
1!
0"
1b
0`
0a
1C
0P"
0b!
1F!
10!
1/!
1~
0Z
0Q"
0c!
1!!
0[
0d!
0,!
0G"
#25000
1"
1`
1a
0C
0Y#
0\#
0^#
1t#
1x#
1e#
1j#
11!
1h#
0-!
1u#
1w#
0w"
1R"
0<#
0>#
1]!
1I"
1W!
1H"
1H!
1G!
0_
0]
0;!
1.#
1N!
1<!
13!
12!
00!
1y
1o
0>!
07!
0F!
0D!
08!
0/!
0.!
0t
1j!
1O
1{!
1|!
0z"
0x"
0X"
1^"
0y!
0W
0T
0t!
1J
0g!
1^!
1J"
0^
1z
0u
1k!
0y"
1##
1"#
1}"
1Y"
1L
1'"
11"
1b"
03"
1u!
1)"
0B#
0M
0("
12"
0@#
0K
0B"
1:"
05"
14
16
19
0D"
0>"
0:"
18"
0,
0?"
0*
#30000
b11101 #
b11111 #
b10 $
b1111 #
b1011 #
b1010 #
0!
0"
1H#
0N#
1M#
0L#
1K#
0J#
0b
0`
0a
1C
1\
0<!
1!"
1:!
0.#
0M!
1h!
15!
02!
0N!
03!
10!
0~
0o
1""
1i!
0!!
1$"
1s!
#35000
1"
1`
1a
0C
1]#
1[#
1{
0v
1=#
0R"
1;#
1A
0B
1`"
1<"
1R
1*"
1x!
0u!
0)"
1V
0Y"
0L
1a"
1="
1&"
0;"
1/"
1("
1K
1M
0b"
1A#
0'"
01"
1?#
1c"
1D"
1B"
1>"
08"
17"
14"
1,"
0("
02"
1A"
0d"
1E"
1?"
19"
15"
0-"
1)
0e"
0."
1&
1*
1+
1,
1g"
0<"
0/"
1F#
0="
0?#
1p"
1l"
1j"
0A#
0E"
0A"
0>"
04"
0D"
0B"
18"
07"
0?"
05"
13
0&
0)
09"
0*
0,
0+
#40000
1!
0"
1b
0`
0a
1C
0!"
0i!
1N!
13!
00!
1~
1o
0""
0s!
1!!
0$"
#45000
1"
1`
1a
0C
0]#
0[#
1q#
1o#
1c#
1a#
01!
1p
0=#
1R"
0;#
0Y!
0{!
0|!
0j!
0[!
0O
0=!
16!
0h!
0N!
0:!
05!
03!
0o
0`!
1_!
1t
1q
0`"
0R
0*"
0x!
1u!
1)"
0V
1Y"
1L
1N
0k!
1\!
0I"
17!
1u
1w
0a"
0&"
1;"
0,"
1("
0K
0c"
0M
1m!
0]!
0J"
1b"
1'"
11"
1<"
1-"
1/"
1d"
0^!
0("
12"
1="
1."
1?#
1e"
0/"
1A#
0<"
1A"
08"
0g"
0?#
1D"
1B"
1>"
17"
14"
0="
0F#
1)
0A"
0>"
04"
1?"
19"
15"
0A#
0p"
0l"
0j"
0?"
05"
0D"
0B"
18"
07"
0)
1*
1+
1,
03
09"
0*
0,
0+
#50000
b10 #
b0 #
b0 $
0!
0"
0H#
0M#
0K#
0b
0`
0a
1C
1A!
0w
0\
0Q!
1L!
0O!
1`!
0~
0q
1o
1c!
0!!
0A!
1d!
#55000
1"
1`
1a
0C
1^#
1v
1>#
1B
1g!
1B#
1B"
08"
15"
1,
#60000
1!
0"
1b
0`
0a
1C
0`!
1~
1q
0o
0c!
1!!
1A!
0d!
#65000
1"
1`
1a
0C
0^#
1B!
0p
0>#
1I!
1C!
1a!
1`!
0_!
0y
0t
0q
0g!
1J!
1$!
1"!
0!!
0z
0u
0A!
0B#
1K!
0B"
18"
05"
0,
#70000
b1 $
b11 $
0!
0"
1I#
1H#
0b
0`
0a
1C
1c
1Y
0~
#75000
1"
1`
1a
0C
1V#
1X#
0B!
1%!
1#!
0{
0v
0p!
1F"
0n!
1d!
0I!
0C!
0`!
1&!
1@
0A
0B
1K"
1q!
1G"
1o!
1#"
1""
1c!
1[
1L"
0F"
#80000
0"
0`
0a
1C
#85000
1"
1`
1a
0C
1\#
1^#
1'!
0R"
1<#
1>#
1?
1X"
0^"
1y!
1W
1T
1t!
0J
1g!
0Y"
0L
0'"
01"
0b"
13"
0u!
0)"
1B#
1M
1("
02"
1@#
1K
1B"
08"
15"
1D"
1>"
1,
1?"
1*
#90000
b10 $
b0 $
0"
0I#
0H#
0`
0a
1C
0c
0Y
#95000
1"
1`
1a
0C
#100000
1%
0"
1d
0`
0a
1e
1C
1~
1!!
0"!
0#!
0}
1$"
1`!
0)!
0&!
0$!
0~
1'#
13!
1/!
1,!
0""
0c!
0[
0$"
0d!
0G"
#105000
1"
1`
1a
0C
0\#
0^#
0e#
0c#
0j#
0a#
0h#
0l#
0'!
0%!
1R"
0<#
0f"
0>#
1_
1]
1=!
1;!
1>!
06!
1v"
1r"
1q"
1o"
1n"
1m"
1l"
0V"
1E"
1@"
19"
0e!
0*!
0+!
0f!
0W"
0?
0@
0X"
1^"
0y!
0W
0T
0t!
1J
0g!
1^
1A"
1-
10
11
12
13
1&
1+
1Y"
1L
1'"
11"
1b"
03"
1u!
1)"
1)
0M
0("
12"
0K
#110000
0%
0"
0d
0`
0a
0e
1C
#115000
1"
1`
1a
0C
1-!
1}
0a!
0/!
0,!
1t
0'#
03!
1)!
0!!
1u
1,!
#120000
b10000 #
b10100 #
b10101 #
b11101 #
b11111 #
0"
1N#
1M#
1L#
1K#
1J#
0`
0a
1C
1b!
0L!
18!
1!"
19!
1M!
1.!
1Z
1h!
14!
1P"
1D!
1c!
1""
1[
1i!
1Q"
1d!
1$"
1G"
1s!
#125000
1"
1`
1a
0C
1Y#
1\#
1]#
1[#
1^#
1l#
1v
0R"
1f"
0v"
0r"
0q"
0o"
0n"
0m"
0l"
1V"
0E"
0@"
09"
1e!
1*!
1+!
1f!
1W"
1B
0A"
1w"
0@#
0B#
1=#
1<#
1;#
1>#
0-
00
01
02
03
0&
0+
1z"
1x"
0D"
0>"
18"
0B"
05"
1`"
1<"
1R
1X"
0^"
1y!
1W
1T
1t!
0J
1*"
1x!
0u!
0)"
1V
0Y"
0L
1g!
1y"
0)
0##
0"#
0}"
0?"
1a"
1="
1&"
0;"
1L
0'"
01"
0b"
13"
1)"
1/"
1("
1K
1M
1B#
0,
1A#
11"
1,"
0("
02"
1c"
1@#
1?#
1B"
08"
15"
04
06
09
0*
1D"
1>"
17"
14"
12"
0-"
0d"
1A"
16"
1,
1E"
1?"
19"
0."
0e"
1)
0<"
0/"
1g"
1&
1*
1+
0="
0?#
1F#
0A#
0E"
0A"
06"
04"
1p"
1l"
1j"
07"
0&
0)
13
09"
0+
#130000
1!
0"
1b
0`
0a
1C
0P"
0!"
0i!
0b!
1F!
10!
1/!
1~
0Z
0Q"
0""
0s!
0c!
1!!
0[
0$"
0d!
0,!
0G"
